<svg width="308" height="203" viewBox="0 0 308 203" fill="none" xmlns="http://www.w3.org/2000/svg">
<g clip-path="url(#clip0_4836_8127)">
<path d="M6.66474 94.4482L11.9232 48.7025C12.6908 42.0148 12.6992 34.8921 14.5181 28.2907C18.0935 15.268 33.3163 13.1261 46.9686 13.422C59.9066 13.7136 72.9002 13.1957 85.8313 12.858C125.953 11.7601 166.074 10.1508 206.192 8.50221C227.966 7.62022 249.754 6.69821 271.556 5.73617C276.366 5.32462 281.21 5.60006 285.877 6.55034C300.793 10.3062 300.218 24.8151 300.234 35.36C300.246 63.3175 301.923 91.2721 303.478 119.154C304.824 143.741 260.855 139.656 240.567 139.468C246.949 155.584 252.777 174.974 265.239 188.392C267.3 190.613 260.919 190.079 259.921 189.636C247.943 184.336 236.457 178.323 225.553 171.643C216.193 166.055 207.446 159.802 199.41 152.953C195.677 149.751 192.217 146.338 189.056 142.737C185.027 138.212 176.649 140.156 170.249 140.214C123.79 140.697 76.353 143.078 30.0309 140.524C29.7085 140.566 29.3824 140.582 29.0574 140.572L28.2425 140.455C-0.308917 136.756 4.63156 112.235 6.66474 94.4482ZM27.9443 137.282C74.6026 139.897 122.371 137.481 169.14 137.002C175.468 136.948 183.222 135.86 189.366 136.917C192.606 137.467 193.716 140.207 195.435 142.247C203.022 151.379 213.313 158.863 223.67 165.754C233.242 172.095 243.363 177.853 253.955 182.983C244.105 169.437 238.884 152.241 233.03 137.673C232.651 136.747 234.27 136.254 235.078 136.235C251.87 136.003 292.957 141.508 296.449 121.426C297.954 112.794 295.663 102.931 295.241 94.3142C294.351 76.1192 293.46 57.9241 293.282 39.6942C293.079 27.2697 295.272 7.90059 275.94 8.74833C211.534 11.6249 147.077 14.4449 82.6105 16.1046C74.4805 16.3057 66.3496 16.4872 58.2138 16.5706C49.3401 16.6507 39.1121 15.3215 30.9895 18.5916C19.1551 23.3418 20.24 37.7301 19.204 46.7132C17.1044 65.0873 14.9965 83.4553 12.8804 101.817C11.5203 113.905 7.48297 134.997 27.9443 137.282Z" fill="#E82A86"/>
<path d="M28.3565 138.895C42.18 139.772 123.19 139.133 188.845 138.418C209.018 165.94 261.847 188.617 261.847 188.617C254.469 181.325 242.196 152.315 236.37 137.844L272.046 137.318C301.723 136.79 299.978 120.093 299.978 120.093C299.978 120.093 296.189 53.3834 296.697 28.2534C297.205 3.12342 274.653 7.25699 274.653 7.25699C274.653 7.25699 71.6957 16.3043 44.425 14.9434C17.1542 13.5826 17.1859 33.1969 17.1859 33.1969L7.87525 114.32C7.87525 114.32 6.46142 137.467 28.3565 138.895Z" fill="white"/>
</g>
<defs>
<clipPath id="clip0_4836_8127">
<rect width="298.959" height="187.179" fill="white" transform="matrix(-0.998805 0.0488811 0.0488811 0.998805 298.76 0.863358)"/>
</clipPath>
</defs>
</svg>
